[
  {
    "targets": [ "192.168.49.1:9100" ],
    "labels": {
      "os": "linux",
      "runtime": "vm"
    }
  },
  {
    "targets": [ "192.168.49.1:8080" ],
    "labels": {
      "os": "linux",
      "runtime": "container"
    }
  }
]